# compile vhdl design source files
vhdl xil_defaultlib  \
"../../../../EMMA.srcs/sources_1/new/Data Memory.vhd" \
"../../../../EMMA.srcs/sources_1/new/Registers.vhd" \
"../../../../EMMA.srcs/sources_1/new/ALU.vhd" \
"../../../../EMMA.srcs/sources_1/new/MU.vhd" \
"../../../../EMMA.srcs/sources_1/new/MPC.vhd" \
"../../../../EMMA.srcs/sources_1/new/IM.vhd" \
"../../../../EMMA.srcs/sources_1/new/MPG.vhd" \
"../../../../EMMA.srcs/sources_1/new/displ7seg.vhd" \
"../../../../EMMA.srcs/sources_1/new/MPG_rst.vhd" \
"../../../../EMMA.srcs/sources_1/new/Clk_gen.vhd" \
"../../../../EMMA.srcs/sources_1/new/Main.vhd" \
"../../../../EMMA.srcs/sim_1/new/mem_tb.vhd" \
"../../../../EMMA.srcs/sim_1/new/alu_tb.vhd" \
"../../../../EMMA.srcs/sim_1/new/Main_tb.vhd" \
"../../../../EMMA.srcs/sim_1/new/MPG_tb.vhd" \
"../../../../EMMA.srcs/sim_1/new/MU.vhd" \
"../../../../EMMA.srcs/sim_1/imports/new/reg_tb.vhd" \
"../../../../EMMA.srcs/sim_1/new/mpc_tb.vhd" \
"../../../../EMMA.srcs/sim_1/new/im_tb.vhd" \
"../../../../EMMA.srcs/sim_1/new/mu_tb.vhd" \

# Do not sort compile order
nosort
